Reseach Questions
…
Full time Student Enrollment Percentages trend by Gender and race

# calculate percentage change in student enrollment from 2020 to 2021 by race and gender

# create data frames with counts of full time students by race and gender
df_MCPS20D%>%
          filter(full_part=="FT")%>%
          filter(sex=="F"|sex =="M")%>%
          group_by(term_year,race,sex)%>%
          count(sex)%>%
          group_by(race,sex)%>%
          arrange(term_year,.by_group=TRUE)%>%
          mutate(pct_change= (n-lag(n))/lag(n)*100) 

## # A tibble: 35 x 5
## # Groups:   race, sex [18]
##    term_year race                   sex       n pct_change
##        <dbl> <chr>                  <chr> <int>      <dbl>
##  1      2020 Am. Indian / AK Native F         4      NA   
##  2      2020 Am. Indian / AK Native M         1      NA   
##  3      2021 Am. Indian / AK Native M         1       0   
##  4      2020 Asian                  F       111      NA   
##  5      2021 Asian                  F       115       3.60
##  6      2020 Asian                  M       159      NA   
##  7      2021 Asian                  M       110     -30.8 
##  8      2020 Black / African Am.    F       178      NA   
##  9      2021 Black / African Am.    F       169      -5.06
## 10      2020 Black / African Am.    M       202      NA   
## #  with 25 more rows
Part time Student Enrollment Percentages trend by Gender and race

# calculate percentage change in student enrollment from 2020 to 2021 by race and gender

# create data frames with counts of full time students by race and gender
df_MCPS20D%>%
          filter(full_part=="PT")%>%
          filter(sex=="F"|sex =="M")%>%
          group_by(term_year,race,sex)%>%
          count(sex)%>%
          group_by(race,sex)%>%
          arrange(term_year,.by_group=TRUE)%>%
          mutate(pct_change= (n-lag(n))/lag(n)*100) 

## # A tibble: 31 x 5
## # Groups:   race, sex [17]
##    term_year race                   sex       n pct_change
##        <dbl> <chr>                  <chr> <int>      <dbl>
##  1      2020 Am. Indian / AK Native M         4      NA   
##  2      2021 Am. Indian / AK Native M         1     -75   
##  3      2020 Asian                  F        30      NA   
##  4      2021 Asian                  F        19     -36.7 
##  5      2020 Asian                  M        37      NA   
##  6      2021 Asian                  M        44      18.9 
##  7      2020 Black / African Am.    F        79      NA   
##  8      2021 Black / African Am.    F        84       6.33
##  9      2020 Black / African Am.    M        96      NA   
## 10      2021 Black / African Am.    M        94      -2.08
## #  with 21 more rows
…
calculate percentage change in full time student majors from 2020 to 2021

df_MCPS20D%>%
          filter(full_part=="FT")%>%
          group_by(term_year,major)%>%
          count(major)%>%
          group_by(term_year)%>%
          group_by(major)%>%
          arrange(term_year,.by_group=TRUE)%>%
          mutate(pct_change= (n-lag(n))/lag(n)*100)

## # A tibble: 62 x 4
## # Groups:   major [33]
##    term_year major                        n pct_change
##        <dbl> <chr>                    <int>      <dbl>
##  1      2020 0                            3      NA   
##  2      2021 0                            2     -33.3 
##  3      2020 American Sign Language       5      NA   
##  4      2021 American Sign Language       1     -80   
##  5      2020 Applied Geography            1      NA   
##  6      2021 Applied Geography            2     100   
##  7      2020 Architectural Technology    15      NA   
##  8      2021 Architectural Technology    19      26.7 
##  9      2020 Art                         24      NA   
## 10      2021 Art                         22      -8.33
## #  with 52 more rows
…
calculate percentage change in part time student majors from 2020 to 2021

df_MCPS20D%>%
          filter(full_part=="PT")%>%
          group_by(term_year,major)%>%
          count(major)%>%
          group_by(term_year)%>%
          group_by(major)%>%
          arrange(term_year,.by_group=TRUE)%>%
          mutate(pct_change= (n-lag(n))/lag(n)*100)

## # A tibble: 60 x 4
## # Groups:   major [32]
##    term_year major                        n pct_change
##        <dbl> <chr>                    <int>      <dbl>
##  1      2020 0                            5       NA  
##  2      2020 American Sign Language       1       NA  
##  3      2021 American Sign Language       2      100  
##  4      2020 Applied Geography            2       NA  
##  5      2020 Architectural Technology    13       NA  
##  6      2021 Architectural Technology     4      -69.2
##  7      2020 Art                         12       NA  
##  8      2021 Art                         14       16.7
##  9      2020 Broadcast Media              5       NA  
## 10      2021 Broadcast Media              4      -20  
## #  with 50 more rows
…
