PartB
…
# create variable pass_rate_hours
# pass_rate_hours = hours_earned/hours_attempted

df_credits<-df_credits %>%
           mutate(hours_pass_rate=hours_earned/hours_attempted)

4.7 Degree Seeking Students

Create dataframe for degree seeking students only

#check majors list for undeclared and missing values.

df_credits%>% count(major)

## # A tibble: 36 x 2
##    major                        n
##    <chr>                    <int>
##  1 0                           16
##  2 American Sign Language      12
##  3 Applied Geography           10
##  4 Architectural Technology    75
##  5 Art                        108
##  6 Broadcast Media             29
##  7 Building Trade              88
##  8 Business                   879
##  9 Certificate & LR           220
## 10 Communication               68
## #  with 26 more rows

There are 33 undeclared majors. 16 majors listed as 0 and 33 listed as NA. I will remove these undeclared majors, and majors listed as NA and 0.

# remove majors listed as "0" and "Undeclared'
df_creditsMajors<- df_credits %>% 
                    filter(major!="0") %>%
                    filter(major!='Undeclared')

#remove NA data 

df_creditsMajors<-df_creditsMajors%>% drop_na(major)

df_creditsMajors%>% count(major)

## # A tibble: 33 x 2
##    major                        n
##    <chr>                    <int>
##  1 American Sign Language      12
##  2 Applied Geography           10
##  3 Architectural Technology    75
##  4 Art                        108
##  5 Broadcast Media             29
##  6 Building Trade              88
##  7 Business                   879
##  8 Certificate & LR           220
##  9 Communication               68
## 10 Computer Applications       82
## #  with 23 more rows

dim(df_creditsMajors)

## [1] 7259   19

There are now 20 variables and 7259 rows of data. There are 220 Certificate & LR students. I will drop these non-degree programmes and focus on degree majors.

# create dataframe with degrees only.

df_creditsDegrees<- df_creditsMajors %>%
                    filter(major !="Certificate & LR")

df_creditsDegrees%>% count(major)

## # A tibble: 32 x 2
##    major                              n
##    <chr>                          <int>
##  1 American Sign Language            12
##  2 Applied Geography                 10
##  3 Architectural Technology          75
##  4 Art                              108
##  5 Broadcast Media                   29
##  6 Building Trade                    88
##  7 Business                         879
##  8 Communication                     68
##  9 Computer Applications             82
## 10 Computer Gaming and Simulation    64
## #  with 22 more rows
…
