PartB
…
Check missing values in variable major

#check majors list for undeclared and missing values.

df_initial%>% count(major)

## # A tibble: 36 x 2
##    major                        n
##    <chr>                    <int>
##  1 0                           16
##  2 American Sign Language      12
##  3 Applied Geography           10
##  4 Architectural Technology    74
##  5 Art                        108
##  6 Broadcast Media             29
##  7 Building Trade              88
##  8 Business                   879
##  9 Certificate & LR           221
## 10 Communication               68
## #  with 26 more rows
…
## [1] 7377   20

There are 72 students with undeclared majors. 16 students with majors listed as 0 and 33 listed as NA. Due to privacy reasons, students have been grouped so as not to identify individual students. Degree Major groupings with less than 10 students have been listed as NA or 0. At this point in time I will not remove these data points, because for the purposes of this study, Major names are not required. I will change the NA in major to Field2 and the 0 to Field1. Students enrolled for a certificate or Letter of Recommendation have been grouped togther irrespective of field.

3 Initial Data Analysis

There are 221 Certificate & LR students in the initial dataset. I will drop these non-degree programmes and focus on degree majors only.

Create dataframe with degrees only I have retained the majors grouped as NA.

#remove certificates, NA refers to degree majors which have not been named to protect student privacy.
df_Degrees<-subset(df_initial, major!="Certificate & LR" || major =='NA')
df_Degrees%>%count(major)

## # A tibble: 36 x 2
##    major                        n
##    <chr>                    <int>
##  1 0                           16
##  2 American Sign Language      12
##  3 Applied Geography           10
##  4 Architectural Technology    74
##  5 Art                        108
##  6 Broadcast Media             29
##  7 Building Trade              88
##  8 Business                   879
##  9 Certificate & LR           221
## 10 Communication               68
## #  with 26 more rows
…
